[gd_resource type="DynamicFont" load_steps=2 format=2]

[ext_resource path="res://intro/HTOWERTI.TTF" type="DynamicFontData" id=1]

[resource]
size = 64
outline_size = 2
outline_color = Color( 0, 0, 0, 1 )
extra_spacing_bottom = 4
font_data = ExtResource( 1 )
